Lectures/MPCRAM/simulation/qsim/MPCRAM.msim.vcd
$comment
	File created using the following command:
		vcd file MPCRAM.msim.vcd -direction
$end
$date
	Sun Nov 10 12:33:21 2019
$end
$version
	ModelSim Version 10.1d
$end
$timescale
	1ps
$end
$scope module ModulePCRAM_vlg_vec_tst $end
$var reg 1 ! CLK $end
$var reg 1 " PC_Count $end
$var reg 8 # PC_DATA_IN [7:0] $end
$var reg 1 $ PC_Load $end
$var reg 1 % PC_Write_Data $end
$var reg 8 & RAM_DATA_IN [7:0] $end
$var reg 1 ' RAM_WREN $end
$var reg 1 ( RESET $end
$var wire 1 ) DEBUG_PC_COUNT [7] $end
$var wire 1 * DEBUG_PC_COUNT [6] $end
$var wire 1 + DEBUG_PC_COUNT [5] $end
$var wire 1 , DEBUG_PC_COUNT [4] $end
$var wire 1 - DEBUG_PC_COUNT [3] $end
$var wire 1 . DEBUG_PC_COUNT [2] $end
$var wire 1 / DEBUG_PC_COUNT [1] $end
$var wire 1 0 DEBUG_PC_COUNT [0] $end
$var wire 1 1 RAM_DATA_OUT [7] $end
$var wire 1 2 RAM_DATA_OUT [6] $end
$var wire 1 3 RAM_DATA_OUT [5] $end
$var wire 1 4 RAM_DATA_OUT [4] $end
$var wire 1 5 RAM_DATA_OUT [3] $end
$var wire 1 6 RAM_DATA_OUT [2] $end
$var wire 1 7 RAM_DATA_OUT [1] $end
$var wire 1 8 RAM_DATA_OUT [0] $end
$var wire 1 9 sampler $end
$scope module i1 $end
$var wire 1 : gnd $end
$var wire 1 ; vcc $end
$var wire 1 < unknown $end
$var tri1 1 = devclrn $end
$var tri1 1 > devpor $end
$var tri1 1 ? devoe $end
$var wire 1 @ PC_DATA_IN[0]~input_o $end
$var wire 1 A PC_DATA_IN[1]~input_o $end
$var wire 1 B PC_DATA_IN[2]~input_o $end
$var wire 1 C PC_DATA_IN[3]~input_o $end
$var wire 1 D PC_DATA_IN[4]~input_o $end
$var wire 1 E PC_DATA_IN[5]~input_o $end
$var wire 1 F PC_DATA_IN[6]~input_o $end
$var wire 1 G PC_DATA_IN[7]~input_o $end
$var wire 1 H PC_Load~input_o $end
$var wire 1 I PC_Write_Data~input_o $end
$var wire 1 J RAM_DATA_OUT[0]~output_o $end
$var wire 1 K RAM_DATA_OUT[1]~output_o $end
$var wire 1 L RAM_DATA_OUT[2]~output_o $end
$var wire 1 M RAM_DATA_OUT[3]~output_o $end
$var wire 1 N RAM_DATA_OUT[4]~output_o $end
$var wire 1 O RAM_DATA_OUT[5]~output_o $end
$var wire 1 P RAM_DATA_OUT[6]~output_o $end
$var wire 1 Q RAM_DATA_OUT[7]~output_o $end
$var wire 1 R DEBUG_PC_COUNT[0]~output_o $end
$var wire 1 S DEBUG_PC_COUNT[1]~output_o $end
$var wire 1 T DEBUG_PC_COUNT[2]~output_o $end
$var wire 1 U DEBUG_PC_COUNT[3]~output_o $end
$var wire 1 V DEBUG_PC_COUNT[4]~output_o $end
$var wire 1 W DEBUG_PC_COUNT[5]~output_o $end
$var wire 1 X DEBUG_PC_COUNT[6]~output_o $end
$var wire 1 Y DEBUG_PC_COUNT[7]~output_o $end
$var wire 1 Z RAM_WREN~input_o $end
$var wire 1 [ CLK~input_o $end
$var wire 1 \ CLK~inputclkctrl_outclk $end
$var wire 1 ] RAM_DATA_IN[0]~input_o $end
$var wire 1 ^ PC_Count~input_o $end
$var wire 1 _ PC_Count~inputclkctrl_outclk $end
$var wire 1 ` RESET~input_o $end
$var wire 1 a C|GenerateDFFs:0:DFFn|QN~0_combout $end
$var wire 1 b C|GenerateDFFs:0:DFFn|QN~reg0_q $end
$var wire 1 c C|GenerateDFFs:0:DFFn|Q~feeder_combout $end
$var wire 1 d RESET~inputclkctrl_outclk $end
$var wire 1 e C|GenerateDFFs:0:DFFn|Q~q $end
$var wire 1 f C|GenerateDFFs:0:DFFn|QN~reg0clkctrl_outclk $end
$var wire 1 g C|GenerateDFFs:1:DFFn|QN~0_combout $end
$var wire 1 h C|GenerateDFFs:1:DFFn|QN~reg0feeder_combout $end
$var wire 1 i C|GenerateDFFs:1:DFFn|QN~reg0_q $end
$var wire 1 j C|GenerateDFFs:1:DFFn|Q~feeder_combout $end
$var wire 1 k C|GenerateDFFs:1:DFFn|Q~q $end
$var wire 1 l C|GenerateDFFs:1:DFFn|QN~reg0clkctrl_outclk $end
$var wire 1 m C|GenerateDFFs:2:DFFn|QN~0_combout $end
$var wire 1 n C|GenerateDFFs:2:DFFn|QN~reg0feeder_combout $end
$var wire 1 o C|GenerateDFFs:2:DFFn|QN~reg0_q $end
$var wire 1 p C|GenerateDFFs:2:DFFn|Q~feeder_combout $end
$var wire 1 q C|GenerateDFFs:2:DFFn|Q~q $end
$var wire 1 r C|GenerateDFFs:2:DFFn|QN~reg0clkctrl_outclk $end
$var wire 1 s C|GenerateDFFs:3:DFFn|QN~0_combout $end
$var wire 1 t C|GenerateDFFs:3:DFFn|QN~reg0feeder_combout $end
$var wire 1 u C|GenerateDFFs:3:DFFn|QN~reg0_q $end
$var wire 1 v C|GenerateDFFs:3:DFFn|Q~feeder_combout $end
$var wire 1 w C|GenerateDFFs:3:DFFn|Q~q $end
$var wire 1 x C|GenerateDFFs:3:DFFn|QN~reg0clkctrl_outclk $end
$var wire 1 y C|GenerateDFFs:4:DFFn|QN~0_combout $end
$var wire 1 z C|GenerateDFFs:4:DFFn|QN~reg0feeder_combout $end
$var wire 1 { C|GenerateDFFs:4:DFFn|QN~reg0_q $end
$var wire 1 | C|GenerateDFFs:4:DFFn|Q~feeder_combout $end
$var wire 1 } C|GenerateDFFs:4:DFFn|Q~q $end
$var wire 1 ~ C|GenerateDFFs:4:DFFn|QN~reg0clkctrl_outclk $end
$var wire 1 !! C|GenerateDFFs:5:DFFn|QN~0_combout $end
$var wire 1 "! C|GenerateDFFs:5:DFFn|QN~reg0feeder_combout $end
$var wire 1 #! C|GenerateDFFs:5:DFFn|QN~reg0_q $end
$var wire 1 $! C|GenerateDFFs:5:DFFn|Q~feeder_combout $end
$var wire 1 %! C|GenerateDFFs:5:DFFn|Q~q $end
$var wire 1 &! C|GenerateDFFs:5:DFFn|QN~reg0clkctrl_outclk $end
$var wire 1 '! C|GenerateDFFs:6:DFFn|QN~0_combout $end
$var wire 1 (! C|GenerateDFFs:6:DFFn|QN~reg0feeder_combout $end
$var wire 1 )! C|GenerateDFFs:6:DFFn|QN~reg0_q $end
$var wire 1 *! C|GenerateDFFs:6:DFFn|Q~feeder_combout $end
$var wire 1 +! C|GenerateDFFs:6:DFFn|Q~q $end
$var wire 1 ,! C|GenerateDFFs:6:DFFn|QN~reg0clkctrl_outclk $end
$var wire 1 -! C|GenerateDFFs:7:DFFn|QN~0_combout $end
$var wire 1 .! C|GenerateDFFs:7:DFFn|QN~reg0_q $end
$var wire 1 /! C|GenerateDFFs:7:DFFn|Q~feeder_combout $end
$var wire 1 0! C|GenerateDFFs:7:DFFn|Q~q $end
$var wire 1 1! RAM_DATA_IN[1]~input_o $end
$var wire 1 2! RAM_DATA_IN[2]~input_o $end
$var wire 1 3! RAM_DATA_IN[3]~input_o $end
$var wire 1 4! RAM_DATA_IN[4]~input_o $end
$var wire 1 5! RAM_DATA_IN[5]~input_o $end
$var wire 1 6! RAM_DATA_IN[6]~input_o $end
$var wire 1 7! RAM_DATA_IN[7]~input_o $end
$var wire 1 8! R|altsyncram_component|auto_generated|q_a [7] $end
$var wire 1 9! R|altsyncram_component|auto_generated|q_a [6] $end
$var wire 1 :! R|altsyncram_component|auto_generated|q_a [5] $end
$var wire 1 ;! R|altsyncram_component|auto_generated|q_a [4] $end
$var wire 1 <! R|altsyncram_component|auto_generated|q_a [3] $end
$var wire 1 =! R|altsyncram_component|auto_generated|q_a [2] $end
$var wire 1 >! R|altsyncram_component|auto_generated|q_a [1] $end
$var wire 1 ?! R|altsyncram_component|auto_generated|q_a [0] $end
$var wire 1 @! R|altsyncram_component|auto_generated|ram_block1a0_PORTADATAOUT_bus [17] $end
$var wire 1 A! R|altsyncram_component|auto_generated|ram_block1a0_PORTADATAOUT_bus [16] $end
$var wire 1 B! R|altsyncram_component|auto_generated|ram_block1a0_PORTADATAOUT_bus [15] $end
$var wire 1 C! R|altsyncram_component|auto_generated|ram_block1a0_PORTADATAOUT_bus [14] $end
$var wire 1 D! R|altsyncram_component|auto_generated|ram_block1a0_PORTADATAOUT_bus [13] $end
$var wire 1 E! R|altsyncram_component|auto_generated|ram_block1a0_PORTADATAOUT_bus [12] $end
$var wire 1 F! R|altsyncram_component|auto_generated|ram_block1a0_PORTADATAOUT_bus [11] $end
$var wire 1 G! R|altsyncram_component|auto_generated|ram_block1a0_PORTADATAOUT_bus [10] $end
$var wire 1 H! R|altsyncram_component|auto_generated|ram_block1a0_PORTADATAOUT_bus [9] $end
$var wire 1 I! R|altsyncram_component|auto_generated|ram_block1a0_PORTADATAOUT_bus [8] $end
$var wire 1 J! R|altsyncram_component|auto_generated|ram_block1a0_PORTADATAOUT_bus [7] $end
$var wire 1 K! R|altsyncram_component|auto_generated|ram_block1a0_PORTADATAOUT_bus [6] $end
$var wire 1 L! R|altsyncram_component|auto_generated|ram_block1a0_PORTADATAOUT_bus [5] $end
$var wire 1 M! R|altsyncram_component|auto_generated|ram_block1a0_PORTADATAOUT_bus [4] $end
$var wire 1 N! R|altsyncram_component|auto_generated|ram_block1a0_PORTADATAOUT_bus [3] $end
$var wire 1 O! R|altsyncram_component|auto_generated|ram_block1a0_PORTADATAOUT_bus [2] $end
$var wire 1 P! R|altsyncram_component|auto_generated|ram_block1a0_PORTADATAOUT_bus [1] $end
$var wire 1 Q! R|altsyncram_component|auto_generated|ram_block1a0_PORTADATAOUT_bus [0] $end
$upscope $end
$upscope $end
$enddefinitions $end
#0
$dumpvars
0!
0"
b0 #
0$
0%
b100 &
1'
0(
x0
x/
x.
x-
x,
x+
x*
x)
x8
x7
x6
x5
x4
x3
x2
x1
x9
0:
1;
x<
1=
1>
1?
0@
0A
0B
0C
0D
0E
0F
0G
0H
0I
xJ
xK
xL
xM
xN
xO
xP
xQ
xR
xS
xT
xU
xV
xW
xX
xY
1Z
0[
x\
0]
0^
x_
0`
xa
0b
xc
xd
0e
xf
xg
xh
0i
xj
0k
xl
xm
xn
0o
xp
0q
xr
xs
xt
0u
xv
0w
xx
xy
xz
0{
x|
0}
x~
x!!
x"!
0#!
x$!
0%!
x&!
x'!
x(!
0)!
x*!
0+!
x,!
x-!
0.!
x/!
00!
01!
12!
03!
04!
05!
06!
07!
0?!
0>!
0=!
0<!
0;!
0:!
09!
08!
0Q!
0P!
0O!
0N!
0M!
0L!
0K!
0J!
0I!
0H!
0G!
0F!
0E!
0D!
0C!
0B!
0A!
0@!
$end
#136
0d
0_
0\
#408
0/!
#932
0~
#1002
0x
#1013
0&!
#1035
0,!
#1308
1'!
#1334
1!!
#1350
1y
#1534
0f
#1625
0r
#1681
1g
#1691
1m
1-!
#1739
1s
#1762
0l
#1784
1a
#2492
1(!
#2500
1"!
#2640
1z
#2685
0$!
#2710
0*!
#2728
0c
#2766
0|
#3155
1h
#3239
0j
#3327
1t
#3349
1n
#3356
0p
#3361
0v
#3907
0V
0,
#3911
0L
06
#4052
0N
04
#4173
0W
0+
#4196
0Y
0)
#4229
0R
00
#4278
0O
03
#4280
0J
08
#4345
0M
05
#4559
0U
0-
#4596
0P
02
#4613
0X
0*
#4627
0T
0.
#4752
0Q
01
#4783
0S
0/
#4803
0K
07
#10000
1!
09
#10656
1[
#10807
1\
#15480
1O!
1=!
#19344
1L
16
#20000
b1100 &
b1110 &
b1111 &
0!
19
#20566
1]
#20614
13!
#20624
11!
#20821
0[
#20957
0\
#30000
1!
09
#30656
1[
#30807
1\
#35480
1Q!
1P!
1N!
1?!
1>!
1<!
#39750
1J
18
#39854
1M
15
#40000
b1011 &
0'
b11 &
b1 &
b0 &
0!
19
#40276
1K
17
#40731
0]
#40771
02!
#40779
03!
0Z
#40789
01!
#40821
0[
#40957
0\
#50000
1!
09
#50656
1[
#50807
1\
#60000
0!
19
#60821
0[
#60957
0\
#70000
1!
09
#70656
1[
#70807
1\
#80000
1"
0!
19
#80666
1^
#80817
1_
#80821
0[
#80957
0\
#82733
1b
#84093
0a
#84185
1f
#85314
1c
#86103
1i
#87667
0g
#87800
1l
#89196
1j
#89209
0h
#89710
1o
#90000
1!
09
#90656
1[
#90807
1\
#91211
1r
#91404
0m
#92917
1p
#93062
0n
#93133
1u
#94103
1x
#94755
0s
#95994
1{
#96233
1v
#96406
0t
#96872
1~
#97298
0y
#98593
1|
#98645
0z
#98764
1#!
#99696
1&!
#100000
0!
19
#100048
0!!
#100821
0[
#100957
0\
#101258
0"!
#101259
1$!
#101587
1)!
#102578
1,!
#102854
0'!
#104070
0(!
#104138
1*!
#104456
1.!
#104805
1/!
#104825
0-!
#110000
1!
09
#110656
1[
#110807
1\
#120000
0!
19
#120821
0[
#120957
0\
#130000
1!
09
#130656
1[
#130807
1\
#140000
0!
19
#140821
0[
#140957
0\
#150000
1!
09
#150656
1[
#150807
1\
#160000
0"
0!
19
#160821
0[
#160831
0^
#160957
0\
#160967
0_
#170000
1!
09
#170656
1[
#170807
1\
#180000
0!
19
#180821
0[
#180957
0\
#190000
1!
09
#190656
1[
#190807
1\
#200000
0!
19
#200821
0[
#200957
0\
#210000
1!
09
#210656
1[
#210807
1\
#220000
0!
19
#220821
0[
#220957
0\
#230000
1!
09
#230656
1[
#230807
1\
#240000
1"
0!
19
#240666
1^
#240817
1_
#240821
0[
#240957
0\
#242733
0b
1e
#244151
1a
#244267
0f
#245461
0c
#246956
1R
10
#250000
1!
09
#250656
1[
#250807
1\
#255306
0Q!
0P!
0O!
0N!
0?!
0>!
0=!
0<!
#259217
0L
06
#259586
0J
08
#259651
0M
05
#260000
0!
19
#260109
0K
07
#260821
0[
#260957
0\
#270000
1!
09
#270656
1[
#270807
1\
#280000
0!
19
#280821
0[
#280957
0\
#290000
1!
09
#290656
1[
#290807
1\
#300000
0!
19
#300821
0[
#300957
0\
#310000
1!
09
#310656
1[
#310807
1\
#320000
0"
0!
19
#320821
0[
#320831
0^
#320957
0\
#320967
0_
#330000
1!
09
#330656
1[
#330807
1\
#340000
0!
19
#340821
0[
#340957
0\
#350000
1!
09
#350656
1[
#350807
1\
#360000
0!
19
#360821
0[
#360957
0\
#370000
1!
09
#370656
1[
#370807
1\
#380000
0!
19
#380821
0[
#380957
0\
#390000
1!
09
#390656
1[
#390807
1\
#400000
1"
0!
19
#400666
1^
#400817
1_
#400821
0[
#400957
0\
#402733
1b
0e
#404093
0a
#404185
1f
#405314
1c
#406103
0i
1k
#406962
0R
00
#407768
1g
#407865
0l
#409242
1h
#409342
0j
#410000
1!
09
#410656
1[
#410807
1\
#410866
1S
1/
#420000
0!
19
#420821
0[
#420957
0\
#430000
1!
09
#430656
1[
#430807
1\
#440000
0!
19
#440821
0[
#440957
0\
#450000
1!
09
#450656
1[
#450807
1\
#460000
0!
19
#460821
0[
#460957
0\
#470000
1!
09
#470656
1[
#470807
1\
#480000
0"
0!
19
#480821
0[
#480831
0^
#480957
0\
#480967
0_
#490000
1!
09
#490656
1[
#490807
1\
#500000
0!
19
#500821
0[
#500957
0\
#510000
1!
09
#510656
1[
#510807
1\
#520000
0!
19
#520821
0[
#520957
0\
#530000
1!
09
#530656
1[
#530807
1\
#540000
0!
19
#540821
0[
#540957
0\
#550000
1!
09
#550656
1[
#550807
1\
#560000
1"
0!
19
#560666
1^
#560817
1_
#560821
0[
#560957
0\
#562733
0b
1e
#564151
1a
#564267
0f
#565461
0c
#566956
1R
10
#570000
1!
09
#570656
1[
#570807
1\
#580000
0!
19
#580821
0[
#580957
0\
#590000
1!
09
#590656
1[
#590807
1\
#600000
0!
19
#600821
0[
#600957
0\
#610000
1!
09
#610656
1[
#610807
1\
#620000
0!
19
#620821
0[
#620957
0\
#630000
1!
09
#630656
1[
#630807
1\
#640000
0"
0!
19
#640821
0[
#640831
0^
#640957
0\
#640967
0_
#650000
1!
09
#650656
1[
#650807
1\
#660000
0!
19
#660821
0[
#660957
0\
#670000
1!
09
#670656
1[
#670807
1\
#680000
0!
19
#680821
0[
#680957
0\
#690000
1!
09
#690656
1[
#690807
1\
#700000
0!
19
#700821
0[
#700957
0\
#710000
1!
09
#710656
1[
#710807
1\
#720000
1"
0!
19
#720666
1^
#720817
1_
#720821
0[
#720957
0\
#722733
1b
0e
#724093
0a
#724185
1f
#725314
1c
#726103
1i
0k
#726962
0R
00
#727667
0g
#727800
1l
#729196
1j
#729209
0h
#729710
0o
1q
#730000
1!
09
#730656
1[
#730807
1\
#730886
0S
0/
#731335
0r
#731449
1m
#733066
0p
#733107
1n
#734248
1T
1.
#740000
0!
19
#740821
0[
#740957
0\
#750000
1!
09
#750656
1[
#750807
1\
#760000
0!
19
#760821
0[
#760957
0\
#770000
1!
09
#770656
1[
#770807
1\
#780000
0!
19
#780821
0[
#780957
0\
#790000
1!
09
#790656
1[
#790807
1\
#800000
0"
0!
19
#800821
0[
#800831
0^
#800957
0\
#800967
0_
#810000
1!
09
#810656
1[
#810807
1\
#820000
0!
19
#820821
0[
#820957
0\
#830000
1!
09
#830656
1[
#830807
1\
#840000
0!
19
#840821
0[
#840957
0\
#850000
1!
09
#850656
1[
#850807
1\
#860000
0!
19
#860821
0[
#860957
0\
#870000
1!
09
#870656
1[
#870807
1\
#880000
1"
0!
19
#880666
1^
#880817
1_
#880821
0[
#880957
0\
#882733
0b
1e
#884151
1a
#884267
0f
#885461
0c
#886956
1R
10
#890000
1!
09
#890656
1[
#890807
1\
#900000
0!
19
#900821
0[
#900957
0\
#910000
1!
09
#910656
1[
#910807
1\
#920000
0!
19
#920821
0[
#920957
0\
#930000
1!
09
#930656
1[
#930807
1\
#940000
0!
19
#940821
0[
#940957
0\
#950000
1!
09
#950656
1[
#950807
1\
#960000
0"
0!
19
#960821
0[
#960831
0^
#960957
0\
#960967
0_
#970000
1!
09
#970656
1[
#970807
1\
#980000
0!
19
#980821
0[
#980957
0\
#990000
1!
09
#990656
1[
