Lectures/ProgramCounterLAB/simulation/qsim/ProgramCounter_8Bits.msim.vcd
$comment
	File created using the following command:
		vcd file ProgramCounter_8Bits.msim.vcd -direction
$end
$date
	Fri Nov 08 19:37:58 2019
$end
$version
	ModelSim Version 10.1d
$end
$timescale
	1ps
$end
$scope module ProgramCounterTopLevel_vlg_vec_tst $end
$var reg 1 ! Count $end
$var reg 1 " Load $end
$var reg 8 # PC_DATA_IN [7:0] $end
$var reg 1 $ RESET $end
$var reg 1 % Write_Data $end
$var wire 1 & PC_COUNT_OUT [7] $end
$var wire 1 ' PC_COUNT_OUT [6] $end
$var wire 1 ( PC_COUNT_OUT [5] $end
$var wire 1 ) PC_COUNT_OUT [4] $end
$var wire 1 * PC_COUNT_OUT [3] $end
$var wire 1 + PC_COUNT_OUT [2] $end
$var wire 1 , PC_COUNT_OUT [1] $end
$var wire 1 - PC_COUNT_OUT [0] $end
$var wire 1 . sampler $end
$scope module i1 $end
$var wire 1 / gnd $end
$var wire 1 0 vcc $end
$var wire 1 1 unknown $end
$var tri1 1 2 devclrn $end
$var tri1 1 3 devpor $end
$var tri1 1 4 devoe $end
$var wire 1 5 PC_COUNT_OUT[0]~output_o $end
$var wire 1 6 PC_COUNT_OUT[1]~output_o $end
$var wire 1 7 PC_COUNT_OUT[2]~output_o $end
$var wire 1 8 PC_COUNT_OUT[3]~output_o $end
$var wire 1 9 PC_COUNT_OUT[4]~output_o $end
$var wire 1 : PC_COUNT_OUT[5]~output_o $end
$var wire 1 ; PC_COUNT_OUT[6]~output_o $end
$var wire 1 < PC_COUNT_OUT[7]~output_o $end
$var wire 1 = Write_Data~input_o $end
$var wire 1 > Count~input_o $end
$var wire 1 ? Load~input_o $end
$var wire 1 @ CMUX1|Selector0~combout $end
$var wire 1 A PC_DATA_IN[0]~input_o $end
$var wire 1 B RESET~input_o $end
$var wire 1 C GenerateDFFs:0:DFFn|QN~0_combout $end
$var wire 1 D GenerateDFFs:0:DFFn|QN~reg0_q $end
$var wire 1 E GenerateDMUX:0:DMUX|Selector0~0_combout $end
$var wire 1 F RESET~inputclkctrl_outclk $end
$var wire 1 G GenerateDFFs:0:DFFn|Q~q $end
$var wire 1 H GenerateCMUX:1:CMUX|Selector0~combout $end
$var wire 1 I PC_DATA_IN[1]~input_o $end
$var wire 1 J GenerateDFFs:1:DFFn|QN~0_combout $end
$var wire 1 K GenerateDFFs:1:DFFn|QN~reg0feeder_combout $end
$var wire 1 L GenerateDFFs:1:DFFn|QN~reg0_q $end
$var wire 1 M GenerateDMUX:1:DMUX|Selector0~0_combout $end
$var wire 1 N GenerateDFFs:1:DFFn|Q~q $end
$var wire 1 O GenerateCMUX:2:CMUX|Selector0~combout $end
$var wire 1 P PC_DATA_IN[2]~input_o $end
$var wire 1 Q GenerateDFFs:2:DFFn|QN~0_combout $end
$var wire 1 R GenerateDFFs:2:DFFn|QN~reg0feeder_combout $end
$var wire 1 S GenerateDFFs:2:DFFn|QN~reg0_q $end
$var wire 1 T GenerateDMUX:2:DMUX|Selector0~0_combout $end
$var wire 1 U GenerateDFFs:2:DFFn|Q~q $end
$var wire 1 V GenerateCMUX:3:CMUX|Selector0~combout $end
$var wire 1 W PC_DATA_IN[3]~input_o $end
$var wire 1 X GenerateDFFs:3:DFFn|QN~0_combout $end
$var wire 1 Y GenerateDFFs:3:DFFn|QN~reg0feeder_combout $end
$var wire 1 Z GenerateDFFs:3:DFFn|QN~reg0_q $end
$var wire 1 [ GenerateDMUX:3:DMUX|Selector0~0_combout $end
$var wire 1 \ GenerateDFFs:3:DFFn|Q~q $end
$var wire 1 ] GenerateCMUX:4:CMUX|Selector0~combout $end
$var wire 1 ^ PC_DATA_IN[4]~input_o $end
$var wire 1 _ GenerateDFFs:4:DFFn|QN~0_combout $end
$var wire 1 ` GenerateDFFs:4:DFFn|QN~reg0feeder_combout $end
$var wire 1 a GenerateDFFs:4:DFFn|QN~reg0_q $end
$var wire 1 b GenerateDMUX:4:DMUX|Selector0~0_combout $end
$var wire 1 c GenerateDFFs:4:DFFn|Q~q $end
$var wire 1 d GenerateCMUX:5:CMUX|Selector0~combout $end
$var wire 1 e PC_DATA_IN[5]~input_o $end
$var wire 1 f GenerateDFFs:5:DFFn|QN~0_combout $end
$var wire 1 g GenerateDFFs:5:DFFn|QN~reg0feeder_combout $end
$var wire 1 h GenerateDFFs:5:DFFn|QN~reg0_q $end
$var wire 1 i GenerateDMUX:5:DMUX|Selector0~0_combout $end
$var wire 1 j GenerateDFFs:5:DFFn|Q~q $end
$var wire 1 k GenerateCMUX:6:CMUX|Selector0~combout $end
$var wire 1 l PC_DATA_IN[6]~input_o $end
$var wire 1 m GenerateDFFs:6:DFFn|QN~0_combout $end
$var wire 1 n GenerateDFFs:6:DFFn|QN~reg0feeder_combout $end
$var wire 1 o GenerateDFFs:6:DFFn|QN~reg0_q $end
$var wire 1 p GenerateDMUX:6:DMUX|Selector0~0_combout $end
$var wire 1 q GenerateDFFs:6:DFFn|Q~q $end
$var wire 1 r GenerateCMUX:7:CMUX|Selector0~combout $end
$var wire 1 s GenerateCMUX:7:CMUX|Selector0~clkctrl_outclk $end
$var wire 1 t PC_DATA_IN[7]~input_o $end
$var wire 1 u GenerateDFFs:7:DFFn|QN~0_combout $end
$var wire 1 v GenerateDFFs:7:DFFn|QN~reg0feeder_combout $end
$var wire 1 w GenerateDFFs:7:DFFn|QN~reg0_q $end
$var wire 1 x GenerateDMUX:7:DMUX|Selector0~0_combout $end
$var wire 1 y GenerateDFFs:7:DFFn|Q~feeder_combout $end
$var wire 1 z GenerateDFFs:7:DFFn|Q~q $end
$upscope $end
$upscope $end
$enddefinitions $end
#0
$dumpvars
0!
0"
b0 #
1$
0%
0-
0,
0+
0*
0)
0(
0'
0&
x.
0/
10
x1
12
13
14
05
06
07
08
09
0:
0;
0<
0=
0>
0?
0@
0A
1B
0C
0D
0E
1F
0G
0H
0I
0J
0K
0L
0M
0N
0O
0P
0Q
0R
0S
0T
0U
0V
0W
0X
0Y
0Z
0[
0\
0]
0^
0_
0`
0a
0b
0c
0d
0e
0f
0g
0h
0i
0j
0k
0l
0m
0n
0o
0p
0q
0r
0s
0t
0u
0v
0w
0x
0y
0z
$end
#20000
1!
1>
0.
1@
#40000
0!
0>
1.
0@
#50000
0$
0B
0F
0.
1u
1m
1f
1_
1X
1Q
1J
1C
1v
1n
1g
1`
1Y
1R
1K
#60000
1!
1>
1.
1@
1D
1H
1E
0C
1L
1O
1M
0J
0K
1S
1V
1T
0Q
0R
1Z
1]
1[
0X
0Y
1a
1d
1b
0_
0`
1h
1k
1i
0f
0g
1o
1r
1p
0m
1s
0n
1w
1x
0u
1y
0v
#80000
0!
0>
0.
0@
#100000
1!
1>
1.
1@
0D
1G
0H
0E
1C
15
1-
#120000
0!
0>
0.
0@
#140000
1!
1>
1.
1@
1D
0G
1H
1E
0C
05
0-
0L
1N
0O
0M
1J
16
1,
1K
#160000
0!
0>
0.
0@
#180000
1!
1>
1.
1@
0D
1G
0H
0E
1C
15
1-
#200000
0!
0>
0.
0@
#220000
1!
1>
1.
1@
1D
0G
1H
1E
0C
05
0-
1L
0N
1O
1M
0J
06
0,
0K
0S
1U
0V
0T
1Q
17
1+
1R
#240000
0!
0>
0.
0@
#260000
1!
1>
1.
1@
0D
1G
0H
0E
1C
15
1-
#280000
0!
0>
0.
0@
#300000
1"
b100 #
b110 #
b111 #
1!
1?
1A
1I
1P
1>
1.
0x
1u
0r
0p
1m
0k
0i
1f
0d
0b
1_
0]
0[
1X
1T
0Q
0O
1E
0C
0s
0y
1v
1n
1g
1`
1Y
0R
#320000
0!
0>
0.
#330000
1%
1=
1.
1r
1k
1d
1]
1V
1O
1H
1@
1s
0L
1N
16
1,
#340000
1!
1>
0.
#360000
0!
0>
1.
#380000
1!
1>
0.
#390000
0"
b11 #
b1 #
b0 #
0%
0?
0A
0I
0P
0=
1.
1x
0u
1p
0m
1i
0f
1b
0_
1[
0X
0V
0T
1Q
0O
0M
1J
0H
0E
1C
1y
0v
0n
0g
0`
0Y
1R
1K
#400000
0!
0>
0.
0@
#420000
1!
1>
1.
1@
1D
0G
1H
1E
0C
05
0-
1L
0N
1O
1M
0J
06
0,
0K
1S
0U
1V
1T
0Q
07
0+
0R
0Z
1\
0]
0[
1X
18
1*
1Y
#440000
0!
0>
0.
0@
#460000
1!
1>
1.
1@
0D
1G
0H
0E
1C
15
1-
#480000
0!
0>
0.
0@
#500000
1!
1>
1.
1@
1D
0G
1H
1E
0C
05
0-
0L
1N
0O
0M
1J
16
1,
1K
#520000
0!
0>
0.
0@
#540000
1!
1>
1.
1@
0D
1G
0H
0E
1C
15
1-
#560000
0!
0>
0.
0@
#580000
1!
1>
1.
1@
1D
0G
1H
1E
0C
05
0-
1L
0N
1O
1M
0J
06
0,
0K
0S
1U
0V
0T
1Q
17
1+
1R
#600000
0!
0>
0.
0@
#620000
1!
1>
1.
1@
0D
1G
0H
0E
1C
15
1-
#640000
0!
0>
0.
0@
#660000
1!
1>
1.
1@
1D
0G
1H
1E
0C
05
0-
0L
1N
0O
0M
1J
16
1,
1K
#680000
0!
0>
0.
0@
#700000
1!
1>
1.
1@
0D
1G
0H
0E
1C
15
1-
#720000
0!
0>
0.
0@
#740000
1!
1>
1.
1@
1D
0G
1H
1E
0C
05
0-
1L
0N
1O
1M
0J
06
0,
0K
1S
0U
1V
1T
0Q
07
0+
0R
1Z
0\
1]
1[
0X
08
0*
0Y
0a
1c
0d
0b
1_
19
1)
1`
#760000
0!
0>
0.
0@
#780000
1!
1>
1.
1@
0D
1G
0H
0E
1C
15
1-
#800000
0!
0>
0.
0@
#820000
1!
1>
1.
1@
1D
0G
1H
1E
0C
05
0-
0L
1N
0O
0M
1J
16
1,
1K
#840000
0!
0>
0.
0@
#860000
1!
1>
1.
1@
0D
1G
0H
0E
1C
15
1-
#880000
0!
0>
0.
0@
#900000
1!
1>
1.
1@
1D
0G
1H
1E
0C
05
0-
1L
0N
1O
1M
0J
06
0,
0K
0S
1U
0V
0T
1Q
17
1+
1R
#920000
0!
0>
0.
0@
#940000
1!
1>
1.
1@
0D
1G
0H
0E
1C
15
1-
#960000
0!
0>
0.
0@
#980000
1!
1>
1.
1@
1D
0G
1H
1E
0C
05
0-
0L
1N
0O
0M
1J
16
1,
1K
